<svg width="165" height="38" viewBox="0 0 165 38" fill="none" xmlns="http://www.w3.org/2000/svg">
<path d="M163.768 20.7678C164.744 19.7915 164.744 18.2085 163.768 17.2322L147.858 1.32233C146.882 0.34602 145.299 0.34602 144.322 1.32233C143.346 2.29864 143.346 3.88155 144.322 4.85786L158.464 19L144.322 33.1421C143.346 34.1184 143.346 35.7014 144.322 36.6777C145.299 37.654 146.882 37.654 147.858 36.6777L163.768 20.7678ZM0 21.5H162V16.5H0V21.5Z" fill="#E5E5E5"/>
</svg>
